{
    "dev" : {
        "host" : "127.0.0.1",
        "user" : "myUser",
        "password" : "",
        "database" : "myDataBase"
    },
    
    "test" : {
        "host" : "127.0.0.1",
        "user" : "myUser",
        "password" : "",
        "database" : ""
    },
    
    "pro" : {
        "host" : "127.0.0.1",
        "user" : "myUser",
        "password" : "",
        "database" : ""
    }
}
